AVR decoder, version 1.1, \2000
Copyright (c) 1999-2001, Romain Lievin

08 68 00 00 88 56 0C 10 08 2D 00 00 88 56 00 00 |  h   V   -   V  
08 09 00 00 88 56 00 00 88 15 0E 00 03 01 02 00 |      V          
00 02 09 01 00 00 00 00 00 08 1A 00 08 56 00 00 |              V  
08 68 00 00 88 56 0C 10 08 87 0B 01 88 56 00 00 |  h   V       V  
08 87 08 01 88 56 00 00 08 87 08 01 88 56 00 00 |      V       V  
08 87 08 01 88 56 00 00 08 87 08 01 88 56 00 00 |      V       V  
08 87 08 11 88 56 00 00 08 87 08 11 88 56 00 00 |      V       V  
08 87 51 20 88 56 00 00 08 87 07 01 88 56 00 00 |   Q  V       V  
08 87 07 01 88 56 00 00 08 87 07 01 88 56 00 00 |      V       V  
08 88 0C 00 00 00 00 00 00 06 6D 61 69 6E 5C 79 |           main\y
80 02 88 56 00 00 88 56 00 00 